{
	"title" : "Experience",
	"experience" : [
		{
			"timeperiod" : "Feb 2017 - Present",
			"company" : "Northwestern Mutual",
			"description" : "Software Engineering Manager, Test Engineering: Currently leading a team of 5 Engineers, developing applications for the enterprise wide Test Engineering organization"
		},
		{
			"timeperiod" : "Mar 2016 - Feb 2017",
			"company" : "Zywave",
			"description" : "Software Test Engineer: Developed automated Integration and UI tests in a .NET environment"
		},
		{
			"timeperiod" : "Oct 2013 - Mar 2016",
			"company" : "Milwaukee Tool",
			"description" : "Sr. Engineering Technician: Created automated fixture software for prototype development and tool production, primarily in a LabVIEW environment"
		},
		{
			"timeperiod" : "May 2003 - Oct 2013",
			"company" : "MGA Research Corp.",
			"description" : "Automotive Crash Test Technician: Data acquisition and testing for destructive automotive tests"
		}
	]
}