{
	"title" : "About me",
	"services" : [
		{
			"icon" : "home",
			"title" : "Family",
			"description" : "Married and father of one. We love going on adventures, camping, mountain biking, swimming, and doing all things that are fun. Love the outdoors."
		},
		{
			"icon" : "code",
			"title" : "Code",
			"description" : "I thoroughly enjoy coding. Node.js, Vue.js, Docker, Gitlab, and AWS are where I spend the majority of my days currently, but I have experience with many other technologies. One of my strongest skills is reverse engineering, knowing how something works (or is supposed to work) helps greatly when testing."
		},
		{
			"icon" : "motorcycle",
			"title" : "Moto",
			"description" : "Another passion I have is motorcycles. I’ve been riding and racing since I was 5 years old, absolutely love it. While the racing days are pretty much over, I still enjoy going out and riding whenever I get the opportunity."
		},
		{
			"icon" : "user-astronaut",
			"title" : "Space",
			"description" : "I like to nerd out on all things space related. NASA, JPL, Voyager 1 and 2, the Saturn V, SpaceX, and so on. I find all of it to be incredibly interesting and love to read about the engineering challenges that these projects faced."
		}
	]
}